"ProductTypePID","Code","Description","UserAvailability","InsertAppUserPID","UpdateAppUserPID","CreatedOn","UpdatedOn"
1,"Base",,0,1,,04-03-2014,
2,"Inventory",,1,1,,04-03-2014,
3,"Non Inventory",,1,1,,04-03-2014,
4,"Service",,1,1,,04-03-2014,
