888  CANADA              E041016782823A    EOCN   Y1010YG054 154EMONTAGUE    PEMONTAGUE   00009999CHTWPETN0MD00    1212A      N888   022216 041016 041016                 
888  CANADA                     782844A    PMCC   Y1010N8050 329ACHARLOTTTN  PECHARLOTTTN 00009999CHTWPE01OMD00    0000A      N888   081514 113014 110215                 
888  CANADA                     782846A    PMCC   Y1010N8050 329ACHARLOTTTN  PECHARLOTTTN 00009999CHTWPE01OMD00    0000A062116N888   102715 122115 122115                 
888  CANADA                     867200A    EOCN   Y1010YG054 940GYELLOWKNIF  NTYELLOWKNIF 00009999YLKNNTAA0MD00    8378M      N888   081913 100413 081715                 
888  CANADA                     867201A    EOCN   Y1010YG054 940GIGLOOLIK    VUIGLOOLIK   00009999IGLOVU030MD00    8378M      N888   081913 100413 081715                 
888  CANADA                     867202A    EOCN   Y1010YG054 940GIQALUIT     VUIQALUIT    00009999IQLTVU030MD00    8378M      N888   081913 100413 081715                 
888  CANADA                     867206A    EOCN   Y1010N8050 8092TROUT LAKE  NTTROUT LAKE 00009999TRLKNT019MD00               N888   021298 010100 080715                 
99999LATA NOT APPLICABLE        867211A    N11N   YNANANTRA1 MULTXXXXXXXXXX  YTXXXXXXXXXX 00009999XXXXXXXXXXX00               N99999 092905 100105 100105                 
888  CANADA                     867222A    PMCC   Y1010Y8050 6574IQALUIT     VUIQALUIT    00009999WHTHYTXB0MD00    9999A      N888   080505 092005 121113                 
888  CANADA                     867223A    PMCC   Y1010Y8050 6574IQALUIT     VUIQALUIT    00009999IQLTVU010MD00    0000A      N888   030813 050413 121113                 
888  CANADA                     867252A    EOCN   Y1010N8050 8092RESOLUTE    VURESOLUTE   00009999RSLTVU01DS000               N888   021298 010100 102601                 
888  CANADA                     867266A    EOCN   Y1010N8050 8092SANIKILUAQ  VUSANIKILUAQ 00009999SKLQVU01DS000               N888   021298 010100 102601                 
888  CANADA                     867292A    EOCN   Y1010YG054 154EBEHCHOKO    NTBEHCHOKO   00009999BCHKNT020MD00    1212A      N888   052914 073014 073014                 
99999LATA NOT APPLICABLE        867311A    N11N   YNANANTRA1 MULTXXXXXXXXXX  YTXXXXXXXXXX 00009999XXXXXXXXXXX00               N99999 092905 100105 100105                 
888  CANADA                     867322A    EOCN   Y1010YG054 154EWHITEHORSE  YTWHITEHORSE 00009999WHTHYT020MD00    1212A      N888   031212 050712 050712                 
888  CANADA                     867323A    PMCC   Y1010N8050 6574HAINES JCT  YTHAINES JCT 00009999HNJTYTXN0MD00               N888   082514 101914 021516                 
888  CANADA                     867324A    PMCC   Y1010N8050 6574IGLOOLIK    VUIGLOOLIK   00009999IGLOVU017MD00               N888   082514 101914 021516                 
888  CANADA                     867325A    PMCC   Y1010N8050 6574OLD CROW    YTOLD CROW   00009999OLCRYTXN0MD00    0000A      N888   082514 101914 013116                 
888  CANADA                     867332A    PMCC   Y1010Y8050 6574WHITEHORSE  YTWHITEHORSE 00009999WHTHYTXB0MD01    9999A      N888   051106 062406 110512                 
888  CANADA                     867333A    PMCC   Y1010Y8050 6574WHITEHORSE  YTWHITEHORSE 00009999FTNLBC01CM100               N888   032598 010100 110512                 
888  CANADA                     867334A    PMCC   Y1010Y8050 6574WHITEHORSE  YTWHITEHORSE 00009999FTNLBC01CM100               N888   122204 021405 110512                 
888  CANADA                     867335A    PMCC   Y1010Y8050 6574WHITEHORSE  YTWHITEHORSE 00009999WHTHYTXB0MD02               N888   113006 013107 110512                 
888  CANADA                     867336A    PMCC   Y1010Y8050 6574WHITEHORSE  YTWHITEHORSE 00009999WHTHYTXB0MD02               N888   091510 110210 110512                 
888  CANADA                     867337A    PMCC   Y1010Y8050 6574WHITEHORSE  YTWHITEHORSE 00009999WHTHYTXB0MD02               N888   072214 090914 021516                 
888  CANADA                     867340A    PMCC   Y1010N8050 6574TUKTOYKTUK  NTTUKTOYKTUK 00009999TKYKNT010MD00               N888   070215 082115 022116                 
888  CANADA                     867360A    EOCN   Y1010N8050 8092GJOA HAVEN  VUGJOA HAVEN 00009999GAHNVUXNDS100               N888   021298 010100 102601                 
888  CANADA              E032916867362A    PMCC   Y1010N8050 6574BEAVER CRK  YTBEAVER CRK 00009999BVCKYTXN0MD00    0000A      N888   020816 032916 032916                 
888  CANADA                     867364A    PMCC   Y1010N8050 6574NAHANNIBTE  NTNAHANNIBTE 00009999NHBTNT010MD00               N888   051414 063014 021516                 
888  CANADA                     867365A    PMCC   Y1010N8050 6574GAMETI      NTGAMETI     00009999GMTINT010MD00               N888   051414 063014 021516                 
888  CANADA                     867370A    EOCN   Y1010N8050 8092LUTSEL K E  NTLUTSEL K E 00009999LTSKNT01DS000               N888   021298 010100 010100                 
888  CANADA                     867371A    EOCR   Y1010Y8050 8092BEHCHOKO    NTBEHCHOKO   00009999YLKNNTXNDS000               N888   021298 010100 073114                 
888  CANADA                     867373A    PMCC   Y1010N8050 6574FTPROVIDNC  NTFTPROVIDNC 00009999FTPRNTXN0MD00               N888   121712 012113 072213                 
888  CANADA                     867374A    PMCC   Y1010N8050 6574TULITA      NTTULITA     00009999TLTANT010MD00               N888   121712 012113 072213                 
888  CANADA                     867375A    PMCC   Y1010N8050 6574AKLAVIK     NTAKLAVIK    00009999AKLKNTXNAMD00               N888   121012 021113 081213                 
888  CANADA                     867376A    PMCC   Y1010N8050 6574FTRESOLUTN  NTFTRESOLUTN 00009999FTRNNTXNAMD00               N888   121012 021113 081213                 
888  CANADA                     867377A    PMCC   Y1010N8050 6574FTMCPHERSN  NTFTMCPHERSN 00009999FTMPNTXN0MD00               N888   121012 021113 081213                 
888  CANADA                     867383A    PMCC   Y1010N8050 6574MAYO        YTMAYO       00009999MAYOYTXN0MD00               N888   091013 110513 050514                 
888  CANADA                     867384A    PMCC   Y1010N8050 6574TESLIN      YTTESLIN     00009999TSLNYTXN0MD00               N888   091013 110513 050514                 
888  CANADA                     867385A    PMCC   Y1010N8050 6574CARMACKS    YTCARMACKS   00009999CRMKYTXN0MD00               N888   091013 110513 050514                 
888  CANADA                     867390A    EOCN   Y1010N8050 8092TESLIN      YTTESLIN     00009999TSLNYTXNRS100               N888   021298 010100 070309                 
888  CANADA              E040316867391A    PMCC   Y1010N8050 6574CAMBDG BY   VUCAMBDG BY  00009999CRBAVUXN0MD00    0000A      N888   020816 040316 040316                 
888  CANADA                     867392A    EOCN   Y1010Y8050 8092BEHCHOKO    NTBEHCHOKO   00009999YLKNNTXNDS000               N888   021298 010100 073114                 
888  CANADA                     867393A    EOCC   Y1010Y8050 8092WHITEHORSE  YTWHITEHORSE 00009999WHTHYTXBDS000               N888   021298 010100 083112                 
888  CANADA                     867394A    EOCN   Y1010N8050 8092FTRESOLUTN  NTFTRESOLUTN 00009999FTRNNTXNDS100               N888   021298 010100 070309                 
888  CANADA                     867396A    EOCN   Y1010N8050 8092ULUKHAKTOK  NTULUKHAKTOK 00009999ULKHNTXNDS000    0000A      N888   021298 010100 051506                 
888  CANADA                     867399A    EOCN   Y1010N8050 8092TAGISH      YTTAGISH     00009999TGSHYTXNDS100               N888   021298 010100 070309                 
99999LATA NOT APPLICABLE        867411A    N11N   YNANANTRA1 MULTXXXXXXXXXX  YTXXXXXXXXXX 00009999XXXXXXXXXXX00               N99999 092905 100105 100105                 
888  CANADA                     867436A    EOCN   Y1010N8050 8092NANISIVIK   VUNANISIVIK  00009999NSVKVU01DS000               N888   021298 010100 102601                 
888  CANADA                     867439A    EOCN   Y1010N8050 8092ARCTIC BAY  VUARCTIC BAY 00009999ARBAVU01DS000               N888   021298 010100 102601                 
888  CANADA                     867444A    PMCC   Y1010Y8050 6574YELLOWKNIF  NTYELLOWKNIF 00009999FTNLBC01CM101               N888   032598 010100 110512                 
888  CANADA                     867445A    PMCC   Y1010Y8050 6574YELLOWKNIF  NTYELLOWKNIF 00009999FTNLBC01CM101               N888   122204 021405 110512                 
888  CANADA                     867446A    PMCC   Y1010Y8050 6574YELLOWKNIF  NTYELLOWKNIF 00009999YLKNNTXN0MD00    9999A      N888   113006 013107 110512                 
888  CANADA                     867447A    PMCC   Y1010Y8050 6574YELLOWKNIF  NTYELLOWKNIF 00009999YLKNNTXN0MD00               N888   082012 100112 040213                 
888  CANADA                     867455A    EOCN   Y1010Y8050 8092WHITEHORSE  YTWHITEHORSE 00009999WHTHYTXBDS000    9999A      N888   013006 081506 083112                 
888  CANADA                     867456A    EOCN   Y1010Y8050 8092WHITEHORSE  YTWHITEHORSE 00009999WHTHYTXBDS000               N888   032598 010100 083112                 
888  CANADA                     867457A    EOCN   Y1010YG054 154EWHITEHORSE  YTWHITEHORSE 00009999WHTHYT020MD00    1212A      N888   111314 010715 010715                 
888  CANADA                     867462A    EOCN   Y1010N8050 8092REPULSEBAY  VUREPULSEBAY 00009999RPBAVU52DS000               N888   021298 010100 102601                 
888  CANADA                     867465A    EOCN   Y1010YG054 154EWHITEHORSE  YTWHITEHORSE 00009999WHTHYT020MD00    1212A      N888   110414 122914 122914                 
888  CANADA                     867466A    EOCN   Y1010YG054 154EWHITEHORSE  YTWHITEHORSE 00009999WHTHYT020MD00    1212A      N888   120915 020916 020916                 
888  CANADA                     867467A    EOCN   Y1010YG054 154EWHITEHORSE  YTWHITEHORSE 00009999WHTHYT020MD00    1212A      N888   120915 020916 020916                 
888  CANADA                     867469A    EOCN   Y1010YG054 154EWHITEHORSE  YTWHITEHORSE 00009999WHTHYT020MD00    1212A      N888   120915 021016 021016                 
888  CANADA                     867470A    EOCN   Y1010YG054 154EWHITEHORSE  YTWHITEHORSE 00009999WHTHYT020MD00    1212A      N888   121415 021016 021016                 
888  CANADA                     867471A    EOCN   Y1010YG054 154EWHITEHORSE  YTWHITEHORSE 00009999WHTHYT020MD00    1212A      N888   121415 021116 021116                 
888  CANADA                     867473A    EOCN   Y1010N8050 8092PANGNIRTNG  VUPANGNIRTNG 00009999PGTGVU24DS000               N888   021298 010100 102601                 
888  CANADA                     867490A    PMCC   Y1010N8050 6574TSIGEHTCHC  NTTSIGEHTCHC 00009999THTCNT010MD00               N888   041213 051213 111213                 
888  CANADA                     867491A    PMCC   Y1010N8050 6574JEANMARIRV  NTJEANMARIRV 00009999JMRVNTRR0MD00               N888   041213 051213 111213                 
888  CANADA                     867492A    PMCC   Y1010N8050 6574BEHCHOKO    NTBEHCHOKO   00009999BCHKNT021MD00               N888   041213 051213 111213                 
888  CANADA                     867493A    PMCC   Y1010N8050 6574KAKISA      NTKAKISA     00009999KKSANTRR0MD00               N888   041213 051213 110513                 
888  CANADA                     867494A    PMCC   Y1010N8050 6574WHATI       NTWHATI      00009999WATINT010MD00               N888   041213 051213 111213                 
888  CANADA                     867495A    PMCC   Y1010N8050 6574WRIGLEY     NTWRIGLEY    00009999WGLYNTXN0MD00               N888   041213 051213 111213                 
888  CANADA                     867496A    PMCC   Y1010N8050 6574FTGOODHOPE  NTFTGOODHOPE 00009999FTGHNTXN0MD00               N888   041213 051213 111213                 
99999LATA NOT APPLICABLE        867511A    N11N   YNANANTRA1 MULTXXXXXXXXXX  YTXXXXXXXXXX 00009999XXXXXXXXXXX00               N99999 092905 100105 100105                 
888  CANADA                     867536A    EOCN   Y1010Y8050 8092WATSONLAKE  YTWATSONLAKE 00009999WTLKYTXNRS100               N888   021298 010100 021215                 
888  CANADA                     867537A    EOCN   Y1010Y8050 8092PELLYCRSNG  YTPELLYCRSNG 00009999WHTHYTXBDS000               N888   021298 010100 030215                 
99999LATA NOT APPLICABLE        867555A    CDAN   Y1010NTRA1 MULTDIR ASST    YTDIR ASST   12121212XXXXXXXXXXX00               N99999 021298 010100 030102                 
888  CANADA                     867561A    EOCN   Y1010N8050 8092TALOYOAK    VUTALOYOAK   00009999TYOKVU01DS100               N888   021298 010100 102601                 
888  CANADA                     867573A    EOCN   Y1010Y8050 8092WHATI       NTWHATI      00009999WATINT01DS000               N888   021298 010100 011515                 
888  CANADA                     867580A    EOCN   Y1010N8050 8092PAULATUK    NTPAULATUK   00009999PLTKNTXN9MD00               N888   021298 010100 103015                 
888  CANADA                     867581A    EOCR   Y1010N8050 8092WRIGLEY     NTWRIGLEY    00009999WGLYNTXN9MD00               N888   021298 010100 103015                 
888  CANADA                     867587A    EOCBC  Y1010N8050 8092NORMANWLLS  NTNORMANWLLS 00009999NRWLNTXNDS000               N888   021298 010100 021009                 
888  CANADA                     867588A    EOCR   Y1010N8050 8092TULITA      NTTULITA     00009999WHTHYTXBDS000               N888   021298 010100 060115                 
888  CANADA                     867589A    EOCN   Y1010N8050 8092DELINE      NTDELINE     00009999DLNENT01DS100               N888   021298 010100 010100                 
888  CANADA                     867598A    EOCR   Y1010N8050 8092FTGOODHOPE  NTFTGOODHOPE 00009999FTGHNTXNDS000               N888   021298 010100 021009                 
888  CANADA                     867602A    EOCN   Y1010N8050 8092NAHANNIBTE  NTNAHANNIBTE 00009999NHBTNT019MD00               N888   021298 010100 113015                 
99999LATA NOT APPLICABLE        867611A    N11N   YNANANTRA1 MULTXXXXXXXXXX  YTXXXXXXXXXX 00009999XXXXXXXXXXX00               N99999 092905 100105 100105                 
888  CANADA                     867620A    PMCC   Y1010Y8050 6574INUVIK      NTINUVIK     00009999INVKNTXN0MD00               N888   060908 072708 110512                 
888  CANADA                     867621A    PMCC   Y1010N8050 6574FORT SMITH  NTFORT SMITH 00009999FTSMNTXN0MD00               N888   090908 102608 042609                 
888  CANADA                     867632A    EOCN   Y1010YG054 154EWHITEHORSE  YTWHITEHORSE 00009999WHTHYT020MD00    1212A      N888   110414 122914 122914                 
888  CANADA                     867633A    EOCN   Y1010Y8050 8092WHITEHORSE  YTWHITEHORSE 00009999WHTHYTXBDS000               N888   021298 010100 083112                 
888  CANADA                     867634A    EOCR   Y1010Y8050 8092HAINES JCT  YTHAINES JCT 00009999HNJTYTXNRS100               N888   021298 010100 011515                 
888  CANADA                     867645A    EOCN   Y1010N8050 8092RANKININLT  VURANKININLT 00009999RKINVU01DS000               N888   021298 010100 102601                 
888  CANADA                     867660A    EOCBC  Y1010Y8050 8092MARSH LAKE  YTMARSH LAKE 00009999JDCKYT01RS100               N888   022499 010100 011515                 
888  CANADA                     867667A    EOCBC  Y1010Y8050 8092WHITEHORSE  YTWHITEHORSE 00009999WHTHYTXBDS000               N888   021298 010100 083112                 
888  CANADA                     867668A    EOCBC  Y1010Y8050 8092WHITEHORSE  YTWHITEHORSE 00009999WHTHYTXBDS000               N888   021298 010100 083112                 
888  CANADA                     867669A    EOCBC  Y1010Y8050 8092YELLOWKNIF  NTYELLOWKNIF 00009999YLKNNTXNDS000               N888   021298 010100 083112                 
888  CANADA                     867675A    EOCN   Y1010YG054 154EYELLOWKNIF  NTYELLOWKNIF 00009999YLKNNT020MD00    1212A      N888   110414 122914 122914                 
888  CANADA                     867676A    EOCN   Y1010YG054 154EYELLOWKNIF  NTYELLOWKNIF 00009999YLKNNT020MD00    1212A      N888   111314 010715 010715                 
888  CANADA                     867677A    EOCN   Y1010YG054 154EYELLOWKNIF  NTYELLOWKNIF 00009999YLKNNT020MD00    1212A      N888   121415 021116 021116                 
888  CANADA                     867678A    EOCBC  Y1010Y8050 8092INUVIK      NTINUVIK     00009999INVKNTXNDS000               N888   110200 033101 083112                 
888  CANADA                     867679A    EOCN   Y1010YG054 154EYELLOWKNIF  NTYELLOWKNIF 00009999YLKNNT020MD00    1212A      N888   121415 021216 021216                 
888  CANADA                     867680A    EOCN   Y1010YG054 154EYELLOWKNIF  NTYELLOWKNIF 00009999YLKNNT020MD00    1212A      N888   121415 021216 021216                 
888  CANADA                     867681A    EOCN   Y1010YG054 154EYELLOWKNIF  NTYELLOWKNIF 00009999YLKNNT020MD00    1212A      N888   121415 021316 021316                 
888  CANADA                     867682A    EOCN   Y1010YG054 154EYELLOWKNIF  NTYELLOWKNIF 00009999YLKNNT020MD00    1212A      N888   121415 021316 021316                 
888  CANADA                     867688A    PMCC   Y1010Y8084 8303YELLOWKNIF  NTYELLOWKNIF 00009999YLKNNTXNAMD00    0010A      N888   050712 070212 070212                 
888  CANADA                     867689A    PMCC   Y1010Y8084 8303WHITEHORSE  YTWHITEHORSE 00009999WHTHYTXBAMD00    0010A      N888   050812 070212 070212                 
888  CANADA                     867690A    EOCN   Y1010N8050 8092SACHSHRBOR  NTSACHSHRBOR 00009999SCHRNTXN9MD00               N888   021298 010100 122315                 
888  CANADA                     867695A    EOCBC  Y1010N8050 8092FT SIMPSON  NTFT SIMPSON 00009999FTSSNTXNDS000               N888   021298 010100 021009                 
888  CANADA                     867699A    EOCR   Y1010N8050 8092FTPROVIDNC  NTFTPROVIDNC 00009999FTPRNTXNDS100               N888   021298 010100 021009                 
888  CANADA                     867709A    EOCN   Y1010Y8050 8092COLVILLELK  NTCOLVILLELK 00009999CVLKNT01DS000               N888   021298 010100 081514                 
99999LATA NOT APPLICABLE        867711A    N11N   YNANANTRA1 MULTXXXXXXXXXX  YTXXXXXXXXXX 00009999XXXXXXXXXXX00               N99999 092905 100105 100105                 
888  CANADA                     867713A    EOCN   Y1010N8050 8092WEKWEETI    NTWEKWEETI   00009999WKWTNTRR9MD00               N888   021298 010100 103015                 
888  CANADA                     867722A    PMCC   Y1010N8050 6574COLVILLELK  NTCOLVILLELK 00009999CVLKNTBA0MD00               N888   121814 020715 021516                 
888  CANADA                     867730A    PMCC   Y1010Y8050 6574DAWSONCITY  YTDAWSONCITY 00009999DWCYYTXN0MD00               N888   102914 122114 021516                 
888  CANADA                     867731A    EOCN   Y1010YG054 154EBEHCHOKO    NTBEHCHOKO   00009999BCHKNT020MD00    1212A      N888   110414 123014 123014                 
888  CANADA                     867733A    PMCC   Y1010N8050 6574CARCROSS    YTCARCROSS   00009999CRCSYTXN0MD00               N888   082714 101714 021516                 
888  CANADA                     867744A    PMCC   Y1010N8050 6574DELINE      NTDELINE     00009999DLNENT010MD00               N888   021115 041115 021516                 
888  CANADA                     867745A    PMCC   Y1010N8050 6574WEKWEETI    NTWEKWEETI   00009999WKWTNTRR0MD00               N888   021115 041115 021516                 
888  CANADA                     867746A    PMCC   Y1010Y8050 6574FARO        YTFARO       00009999FAROYTXN0MD00               N888   021115 041115 021516                 
888  CANADA                     867747A    PMCC   Y1010N8050 6574ROSS RIVER  YTROSS RIVER 00009999RSRVYTXN0MD00               N888   021115 041115 021516                 
888  CANADA                     867748A    PMCC   Y1010N8050 6574TAGISH      YTTAGISH     00009999TGSHYTXN0MD00               N888   021115 041115 021516                 
888  CANADA                     867749A    PMCC   Y1010Y8050 6574WATSONLAKE  YTWATSONLAKE 00009999WTLKYTXN0MD00               N888   022315 041815 021516                 
888  CANADA                     867765A    EOCN   Y1010Y8050 8092YELLOWKNIF  NTYELLOWKNIF 00009999YLKNNTXNDS000               N888   022503 093003 083112                 
888  CANADA                     867766A    EOCN   Y1010Y8050 8092YELLOWKNIF  NTYELLOWKNIF 00009999YLKNNTXNDS000               N888   032598 010100 083112                 
888  CANADA                     867767A    EOCN   Y1010Y8050 8092YELLOWKNIF  NTYELLOWKNIF 00009999YLKNNTXNDS000    9999A      N888   013006 081506 083112                 
888  CANADA                     867768A    EOCN   Y1010YG054 154EINUVIK      NTINUVIK     00009999INVKNT010MD00    1212A      N888   110414 123014 123014                 
888  CANADA                     867769A    EOCN   Y1010N8050 8092KUGAARUK    VUKUGAARUK   00009999KGRKVU01DS000               N888   021298 010100 102601                 
888  CANADA                     867770A    EOCN   Y1010N8050 8092FORT LIARD  NTFORT LIARD 00009999FTLDNTXADS100               N888   021298 010100 010100                 
888  CANADA                     867777A    EOCC   Y1010Y8050 8092INUVIK      NTINUVIK     00009999INVKNTXNDS000               N888   021298 010100 083112                 
888  CANADA                     867783A    EOCN   Y1010YG054 154EYELLOWKNIF  NTYELLOWKNIF 00009999YLKNNT020MD00    1212A      N888   110414 122914 122914                 
888  CANADA                     867785A    PMCC   Y1010N8050 6574LUTSEL K E  NTLUTSEL K E 00009999LTSKNT010MD00               N888   061614 080514 021516                 
888  CANADA                     867786A    PMCC   Y1010N8050 6574SACHSHRBOR  NTSACHSHRBOR 00009999SCHRNTXN0MD00               N888   061614 080514 021516                 
888  CANADA                     867787A    PMCC   Y1010N8050 6574ULUKHAKTOK  NTULUKHAKTOK 00009999ULKHNTXN0MD00               N888   061714 080514 021516                 
888  CANADA                     867788A    PMCC   Y1010N8050 6574PAULATUK    NTPAULATUK   00009999PLTKNTXN0MD00               N888   061714 080514 021516                 
888  CANADA                     867789A    PMCC   Y1010N8050 6574DESTRUTNBY  YTDESTRUTNBY 00009999DSBAYTXNAMD00               N888   061714 080514 021516                 
888  CANADA                     867793A    EOCN   Y1010N8050 8092BAKER LAKE  VUBAKER LAKE 00009999BKLKVU40DS000               N888   021298 010100 102601                 
888  CANADA                     867794A    EOCN   Y1010YG054 154EIQALUIT     VUIQALUIT    00009999IQLTVU020MD00    1212A      N888   110414 123014 123014                 
888  CANADA                     867809A    EOCN   Y1010N8050 8092JEANMARIRV  NTJEANMARIRV 00009999JMRVNTRR9MD00               N888   021298 010100 103015                 
99999LATA NOT APPLICABLE        867811A    N11N   YNANANTRA1 MULTXXXXXXXXXX  YTXXXXXXXXXX 00009999XXXXXXXXXXX00               N99999 092905 100105 100105                 
888  CANADA                     867821A    EOCR   Y1010Y8050 8092CARCROSS    YTCARCROSS   00009999CRCSYTXNRS100               N888   021298 010100 021215                 
888  CANADA                     867825A    EOCN   Y1010N8050 8092KAKISA      NTKAKISA     00009999KKSANTRRDS000               N888   021298 010100 010100                 
888  CANADA                     867841A    EOCR   Y1010N8050 8092BURWASHLDG  YTDESTRUTNBY 00009999DSBAYTXNDS100               N888   021298 010100 021009                 
888  CANADA                     867851A    EOCR   Y1010N8050 8092SWIFTRIVER  YTSWIFTRIVER 00009999SWRVYTXNDS100               N888   021298 010100 021009                 
888  CANADA                     867857A    EOCN   Y1010N8050 8092ARVIAT      VUARVIAT     00009999ARVTVU01DS000               N888   021298 010100 102601                 
888  CANADA                     867862A    EOCR   Y1010N8050 8092BEAVER CRK  YTBEAVER CRK 00009999BVCKYTXNDS100               N888   021298 010100 021009                 
888  CANADA                     867863A    EOCR   Y1010N8050 8092CARMACKS    YTCARMACKS   00009999CRMKYTXNRS100               N888   021298 010100 021009                 
888  CANADA                     867870A    EOCN   Y1010Y8050 8092FORT SMITH  NTFORT SMITH 00009999FTSMNTXNDS000               N888   013006 080106 081514                 
888  CANADA                     867872A    EOCC   Y1010Y8050 8092FORT SMITH  NTFORT SMITH 00009999FTSMNTXNDS000               N888   021298 010100 081514                 
888  CANADA                     867873A    EOCBC  Y1010Y8050 8092YELLOWKNIF  NTYELLOWKNIF 00009999YLKNNTXNDS000               N888   021298 010100 083112                 
888  CANADA                     867874A    EOCBC  Y1010Y8050 8092HAY RIVER   NTHAY RIVER  00009999HYRVNTXNDS000               N888   021298 010100 103013                 
888  CANADA                     867875A    EOCBC  Y1010Y8050 8092HAY RIVER   NTHAY RIVER  00009999HYRVNTXNDS000               N888   012802 083002 103013                 
888  CANADA                     867876A    PMCC   Y1010Y8050 6574HAY RIVER   NTHAY RIVER  00009999HYRVNTXNAMD00               N888   031208 050908 020315                 
888  CANADA                     867877A    EOCN   Y1010YG054 154EIQALUIT     VUIQALUIT    00009999IQLTVU020MD00    1212A      N888   011113 030113 030113                 
888  CANADA                     867880A    EOCN   Y1010N8050 8092EKATI       NTEKATI      00009999EKTINTBADS000               N888   021298 010100 083003                 
888  CANADA                     867888A    EOCN   Y1010YG054 154EINUVIK      NTINUVIK     00009999INVKNT010MD00    1212A      N888   031212 050712 050712                 
888  CANADA                     867896A    EOCN   Y1010N8050 8092WHALE COVE  VUWHALE COVE 00009999WHCVVU54DS000               N888   021298 010100 102601                 
888  CANADA                     867897A    EOCN   Y1010N8050 8092CAPEDORSET  VUCAPEDORSET 00009999CPDTVU17DS000               N888   021298 010100 102601                 
888  CANADA                     867898A    EOCN   Y1010N8050 8092CHESTEINLT  VUCHESTEINLT 00009999CHLTVU41DS000               N888   021298 010100 102601                 
888  CANADA                     867899A    EOCN   Y1010N8050 8092POND INLET  VUPOND INLET 00009999PDINVU01DS000               N888   021298 010100 102601                 
99999LATA NOT APPLICABLE        867911A    N11N   YNANANTRA1 MULTXXXXXXXXXX  YTXXXXXXXXXX 00009999XXXXXXXXXXX00               N99999 092905 100105 100105                 
888  CANADA                     867920A    EOCN   Y1010Y8050 8092YELLOWKNIF  NTYELLOWKNIF 00009999YLKNNTXNDS000               N888   021298 010100 083112                 
888  CANADA                     867924A    EOCN   Y1010N8050 8092CLYDERIVER  VUCLYDERIVER 00009999CLRVVU01DS000               N888   021298 010100 102601                 
888  CANADA                     867925A    EOCN   Y1010N8050 8092CORALHRBOR  VUCORALHRBOR 00009999CRHRVU42DS000               N888   021298 010100 102601                 
888  CANADA                     867927A    EOCN   Y1010N8050 8092BROUGHTNIS  VUQIKIQTARJQ 00009999QKJQVU30DS000               N888   021298 010100 102601                 
888  CANADA                     867928A    EOCN   Y1010N8050 8092HALL BEACH  VUHALL BEACH 00009999HLBHVU01DS000               N888   021298 010100 102601                 
888  CANADA                     867934A    EOCN   Y1010Y8050 8092IGLOOLIK    VUIGLOOLIK   00009999IGLOVU01DS000               N888   021298 010100 101113                 
888  CANADA                     867939A    EOCN   Y1010N8050 8092KIMMIRUT    VUKIMMIRUT   00009999KMRTVU01DS000               N888   021298 010100 102601                 
888  CANADA                     867952A    EOCN   Y1010N8050 8092FTMCPHERSN  NTFTMCPHERSN 00009999FTMPNTXNDS000               N888   021298 010100 010100                 
888  CANADA                     867953A    EOCR   Y1010Y8050 8092TSIGEHTCHC  NTTSIGEHTCHC 00009999THTCNT01DS000               N888   021298 010100 021215                 
99999LATA NOT APPLICABLE        867958A    TSTN   Y1010NTRA1 MULTXXXXXXXXXX  NTXXXXXXXXXX 00009999XXXXXXXXXXX00               N99999 083005 090105 090105                 
99999LATA NOT APPLICABLE        867959A    TSTN   Y1010NTRA1 MULTXXXXXXXXXX  NTXXXXXXXXXX 00009999XXXXXXXXXXX00               N99999 083005 090105 090105                 
888  CANADA                     867966A    EOCN   Y1010N8050 8092OLD CROW    YTOLD CROW   00009999OLCRYTXNDS000               N888   021298 010100 010100                 
888  CANADA                     867969A    EOCR   Y1010Y8050 8092ROSS RIVER  YTROSS RIVER 00009999RSRVYTXNRS100               N888   021298 010100 021215                 
888  CANADA                     867974A    EOCBC  Y1010Y8050 8092IQALUIT     VUIQALUIT    00009999IQLTVU01DS000    9998A      N888   041411 093011 083112                 
888  CANADA                     867975A    EOCBC  Y1010Y8050 8092IQALUIT     VUIQALUIT    00009999IQLTVU01DS000               N888   061298 010100 083112                 
888  CANADA                     867977A    EOCBC  Y1010Y8050 8092TUKTOYKTUK  NTTUKTOYKTUK 00009999TKYKNT019MD00               N888   021298 010100 120315                 
888  CANADA                     867978A    EOCN   Y1010Y8050 8092AKLAVIK     NTAKLAVIK    00009999AKLKNTXNDS000               N888   021298 010100 011515                 
888  CANADA                     867979A    EOCN   Y1010Y8050 8092IQALUIT     VUIQALUIT    00009999IQLTVU01DS000               N888   021298 010100 083112                 
888  CANADA                     867980A    EOCN   Y1010N8050 8092GRISEFIORD  VUGRISEFIORD 00009999GSFDVU01DS000               N888   021298 010100 102601                 
888  CANADA                     867982A    EOCN   Y1010N8050 8092KUGLUKTUK   VUKUGLUKTUK  00009999KGKKVU01DS000               N888   021298 010100 102601                 
888  CANADA                     867983A    EOCN   Y1010N8050 8092CAMBDG BY   VUCAMBDG BY  00009999CRBAVUXNDS000               N888   021298 010100 102601                 
888  CANADA                     867984A    EOCR   Y1010N8050 8092ENTERPRISE  NTENTERPRISE 00009999HYRVNTXNDS000               N888   021298 010100 033115                 
888  CANADA                     867988A    EOCN   Y1010YG054 154EYELLOWKNIF  NTYELLOWKNIF 00009999YLKNNT020MD00    1212A      N888   031212 050712 050712                 
888  CANADA              E032216867991A    EOCN   Y1010YG054 154EDAWSONCITY  YTDAWSONCITY 00009999WHTHYT020MD00    1212A      N888   012616 032216 032216                 
888  CANADA                     867992A    EOCN   Y1010YG054 154EDAWSONCITY  YTDAWSONCITY 00009999WHTHYT020MD00    1212A      N888   110414 010515 010515                 
888  CANADA                     867993A    EOCN   Y1010Y8050 8092DAWSONCITY  YTDAWSONCITY 00009999DWCYYTXNRS100               N888   021298 010100 081514                 
888  CANADA                     867994A    EOCR   Y1010Y8050 8092FARO        YTFARO       00009999FAROYTXNDS000               N888   021298 010100 011515                 
888  CANADA                     867995A    EOCR   Y1010N8050 8092ELSA        YTELSA       00009999WHTHYTXBDS000               N888   021298 010100 042806                 
888  CANADA                     867996A    EOCR   Y1010N8050 8092MAYO        YTMAYO       00009999MAYOYTXNRS100               N888   021298 010100 021009                 
888  CANADA                     867997A    EOCN   Y1010N8050 8092GAMETI      NTGAMETI     00009999GMTINT01DS000    9999M      N888   021298 010100 020606                 
99999LATA NOT APPLICABLE        867999A    BLGN   NNANAN8050 8092XXXXXXXXXX  NTXXXXXXXXXX 00009999XXXXXXXXXXX00               N99999 021201 083100 090105                 
888  CANADA                     902200A    EOCN   Y1010YG054 154ECHARLOTTTN  PECHARLOTTTN 00009999CHTWPETN0MD00    1212A      N888   041612 061112 061112                 
888  CANADA                     902201A    EOCN   Y1010YG054 154ECHARLOTTTN  PECHARLOTTTN 00009999CHTWPETN0MD00    1212A      N888   050712 062612 062612                 
888  CANADA                     902206A    RCCC   Y1010Y8821 8821ALBERTON    PEALBERTON   00009999ALTNPEABAMD00               N888   090805 110705 031407                 
888  CANADA                     902208A    RCCC   Y1010Y8821 8821SOURIS      PESOURIS     00009999SORSPEAEAMD00               N888   090805 110705 031407                 
888  CANADA                     902213A    PMCC   Y1010Y8084 8303CHARLOTTTN  PECHARLOTTTN 00009999CHTWPE015MD00    0010A      N888   022811 042911 042911                 
888  CANADA                     902214A    PMCC   Y1010Y8050 329AALBERTON    PEALBERTON   00009999ALTNPE01AMD00    1111M      N888   082306 101606 031407                 
888  CANADA                     902215A    PMCC   Y1010Y8050 329ASOURIS      PESOURIS     00009999SORSPE01AMD00    1111M      N888   082306 101606 031407                 
888  CANADA                     902218A    PMCC   Y1010Y8084 8303CHARLOTTTN  PECHARLOTTTN 00009999CHTWPE015MD00    0010A      N888   122206 021407 091010                 
888  CANADA                     902231A    EOCN   Y1010YG054 4878ALBERTON    PEALBERTON   00009999ALTNPE01EMD00               N888   073103 091703 091703                 
888  CANADA                     902283A    EOCN   Y1010YG054 4878GEORGETOWN  PEGEORGETOWN 00009999GRTWPE02EMD00    1111M      N888   050905 062705 062705                 
888  CANADA                     902288A    EOCN   Y1010YG054 4878CHARLOTTTN  PECHARLOTTTN 00009999CHTWPE012MD00    1111M      N888   012208 030908 030908                 
888  CANADA                     902290A    PMCC   Y1010YG054 421GALBERTON    PEALBERTON   00009999CHTWPEEG0MD00    0001A      N888   010612 030112 030112                 
888  CANADA                     902291A    EOCN   Y1010YG054 4878KENSINGTON  PEKENSINGTON 00009999KETNPEAGAMD00    1111M      N888   040808 060308 060308                 
888  CANADA                     902303A    PMCC   Y1010Y8084 8303SUMMERSIDE  PESUMMERSIDE 00009999SMSDPE01GMD00    0010A      N888   010507 011507 091010                 
888  CANADA                     902313A    RCCC   Y1010Y8821 8821MONTAGUE    PEMONTAGUE   00009999MTAGPEAIAMD00               N888   042905 061705 031407                 
888  CANADA                     902314A    RCCC   Y1010Y8821 8821CHARLOTTTN  PECHARLOTTTN 00009999CHTWPEAABMD00               N888   062705 082105 031407                 
888  CANADA                     902315A    RCCC   Y1010Y8821 8821SUMMERSIDE  PESUMMERSIDE 00009999SMSDPEAABMD00               N888   062705 082505 031407                 
888  CANADA                     902316A    RCCC   Y1010Y8821 8821CHARLOTTTN  PECHARLOTTTN 00009999CHTWPEAABMD00               N888   012709 031309 031309                 
888  CANADA                     902326A    PMCC   Y1010Y8084 8303MONTAGUE    PEMONTAGUE   00009999MTAGPE03FMD00    0010M      N888   091710 110710 080811                 
888  CANADA                     902327A    PMCC   Y1010Y8084 8303SOURIS      PESOURIS     00009999SORSPE01FMD00    0010M      N888   070610 082210 080811                 
888  CANADA                     902330A    PMCC   Y1010YG054 421GCHARLOTTTN  PECHARLOTTTN 00009999CHTWPEEG0MD00    0001A      N888   020712 033112 033112                 
888  CANADA                     902339A    EOCN   Y1010YG054 4878COVEHEAD    PECOVEHEAD   00009999CHTWPE01EMD00    1111M      N888   061413 080413 080413                 
888  CANADA                     902353A    EOCN   Y1010YG054 4878VERNON RIV  PEVERNON RIV 00009999CHTWPE01EMD00    1111M      N888   051514 070314 070314                 
888  CANADA                     902355A    EOCN   Y1010N8050 8087CHARLOTTTN  PECHARLOTTTN 00009999CHTWPE017MD00               N888   031412 050712 110812                 
888  CANADA                     902357A    EOCN   Y1010Y8050 8087SOUTH LAKE  PESOUTH LAKE 00009999SOLKPE02RS100               N888   021298 010100 091614                 
888  CANADA                     902360A    EOCN   Y1010YG054 4878RUSTICOVL   PERUSTICOVL  00009999CHTWPE01EMD00    1111M      N888   032612 051012 051012                 
888  CANADA                     902361A    EOCN   Y1010YG054 4878MONTAGUE    PEMONTAGUE   00009999MTAGPE03EMD00               N888   073103 091703 091703                 
888  CANADA                     902367A    EOCN   Y1010YG054 4878CHARLOTTTN  PECHARLOTTTN 00009999CHTWPE01EMD00               N888   092000 110400 110400                 
888  CANADA                     902368A    EOCN   Y1010Y8050 8087CHARLOTTTN  PECHARLOTTTN 00009999CHTWPE01CG000               N888   021298 010100 111600                 
888  CANADA                     902370A    EOCN   Y1010YG054 4878CHARLOTTTN  PECHARLOTTTN 00009999CHTWPE01EMD00    1111M      N888   073107 093007 093007                 
888  CANADA                     902372A    PMCC   Y1010YG054 421GSOURIS      PESOURIS     00009999CHTWPEEG0MD00    0001A      N888   020712 033112 033112                 
888  CANADA                     902374A    EOCN   Y1010YG054 4878SUMMERSIDE  PESUMMERSIDE 00009999SMSDPE01FMD00    1111M      N888   110807 122707 122707                 
888  CANADA                     902380A    PMCC   Y1010YG054 421GMONTAGUE    PEMONTAGUE   00009999CHTWPEEG0MD00    0001A      N888   020212 042612 042612                 
888  CANADA                     902381A    EOCN   Y1010Y8050 8087SUMMERSIDE  PESUMMERSIDE 00009999SMSDPE011MD00               N888   032012 051212 111312                 
888  CANADA                     902388A    PMCC   Y1010Y8050 329ACHARLOTTTN  PECHARLOTTTN 00009999CHTWPE01KMD00    1111M      N888   060606 073106 021507                 
888  CANADA                     902393A    PMCC   Y1010Y8050 329ACHARLOTTTN  PECHARLOTTTN 00009999CHTWPE01KMD00               N888   082599 010100 052107                 
888  CANADA                     902394A    PMCC   Y1010Y8050 329ACHARLOTTTN  PECHARLOTTTN 00009999CHTWPE01KMD00               N888   071001 082701 052107                 
888  CANADA                     902409A    EOCN   Y1010N8050 8087CHARLOTTTN  PECHARLOTTTN 00009999CHTWPE01PMD00    1111A      N888   121615 020216 020216                 
888  CANADA                     902432A    EOCN   Y1010Y8050 8087SUMMERSIDE  PESUMMERSIDE 00009999SMSDPE01RS000               N888   021298 010100 120106                 
888  CANADA                     902436A    EOCN   Y1010Y8050 8087SUMMERSIDE  PESUMMERSIDE 00009999SMSDPE01RS000               N888   021298 010100 120106                 
888  CANADA                     902437A    EOCN   Y1010Y8050 8087BORDEN      PEBORDEN     00009999BRDNPE01RS100               N888   021298 010100 061104                 
888  CANADA                     902438A    EOCN   Y1010Y8050 8087SUMMERSIDE  PESUMMERSIDE 00009999SMSDPE01RS000               N888   021298 010100 120106                 
888  CANADA                     902439A    PMCC   Y1010Y8050 329ASUMMERSIDE  PESUMMERSIDE 00009999SMSDPE01AMD00               N888   082599 010100 031407                 
888  CANADA                     902519A    EOCN   Y1010Y8050 8087CHARLOTTTN  PECHARLOTTTN 00009999CHTWPE019MD00               N888   071414 091614 021516                 
888  CANADA                     902556A    EOCN   Y1010Y8050 8087CHARLOTTTN  PECHARLOTTTN 00009999CHTWPE01CG000               N888   021298 010100 042910                 
888  CANADA                     902557A    EOCN   Y1010N8050 8087CHARLOTTTN  PECHARLOTTTN 00009999CHTWPE01CG000               N888   021298 010100 010100                 
888  CANADA                     902566A    EOCN   Y1010Y8050 8087CHARLOTTTN  PECHARLOTTTN 00009999CHTWPE01CG000               N888   021298 010100 111600                 
888  CANADA                     902569A    EOCN   Y1010Y8050 8087CHARLOTTTN  PECHARLOTTTN 00009999CHTWPE01CG000               N888   021298 010100 111600                 
888  CANADA                     902583A    EOCN   Y1010Y8050 8087CARDIGAN    PECARDIGAN   00009999CRDGPE02RS100               N888   021298 010100 060511                 
888  CANADA                     902598A    PMCC   Y1010Y8050 329ASUMMERSIDE  PESUMMERSIDE 00009999SMSDPE01AMD00               N888   121509 020510 072910                 
888  CANADA                     902607A    EOCN   Y1010N8050 8087CHARLOTTTN  PECHARLOTTTN 00009999CHTWPE019MD00               N888   101514 121514 021516                 
888  CANADA                     902620A    EOCN   Y1010Y8050 8087CHARLOTTTN  PECHARLOTTTN 00009999CHTWPE01CG000               N888   021298 010100 030107                 
888  CANADA                     902621A    EOCN   Y1010Y8050 8087HUNTER RIV  PEHUNTER RIV 00009999HNRVPE01RS100               N888   021298 010100 091504                 
888  CANADA                     902626A    EOCN   Y1010Y8050 8087CHARLOTTTN  PECHARLOTTTN 00009999CHTWPE01CG000               N888   021298 010100 052201                 
888  CANADA                     902628A    EOCB   Y1010Y8050 8087CHARLOTTTN  PECHARLOTTTN 00009999CHTWPE01CG000               N888   021298 010100 111600                 
888  CANADA                     902629A    EOCN   Y1010Y8050 8087CHARLOTTTN  PECHARLOTTTN 00009999CHTWPE01CG000               N888   021298 010100 111600                 
888  CANADA                     902651A    EOCN   Y1010Y8050 8087VERNON RIV  PEVERNON RIV 00009999VNRVPE02RS100               N888   021298 010100 091614                 
888  CANADA                     902652A    EOCN   Y1010Y8050 8087GEORGETOWN  PEGEORGETOWN 00009999GRTWPE02RS100               N888   021298 010100 080605                 
888  CANADA                     902658A    EOCN   Y1010Y8050 8087CRAPAUD     PECRAPAUD    00009999CRDGPE02RS100               N888   021298 010100 061104                 
888  CANADA                     902659A    EOCN   Y1010Y8050 8087ELDON       PEELDON      00009999ELDNPE02RS100               N888   021298 010100 091614                 
888  CANADA                     902672A    EOCN   Y1010Y8050 8087COVEHEAD    PECOVEHEAD   00009999CVHDPE01RS100               N888   021298 010100 091614                 
888  CANADA                     902675A    EOCN   Y1010Y8050 8087NEW HAVEN   PENEW HAVEN  00009999NWHNPE01RS100               N888   021298 010100 091614                 
888  CANADA                     902676A    EOCN   Y1010Y8050 8087MT STEWART  PEMT STEWART 00009999MTSTPE03RS100               N888   021298 010100 061104                 
888  CANADA                     902687A    EOCN   Y1010Y8050 8087SOURIS      PESOURIS     00009999SORSPE01RS100               N888   021298 010100 093003                 
888  CANADA                     902724A    EOCN   Y1010YG054 4878SUMMERSIDE  PESUMMERSIDE 00009999SMSDPEELEMD00               N888   110901 122701 122701                 
888  CANADA                     902726A    EOCN   Y1010YG054 4878O LEARY     PEO LEARY    00009999OLRYPE01EMD00    1111M      N888   122305 021206 021206                 
888  CANADA                     902729A    EOCN   Y1010YG054 4878BORDEN      PEBORDEN     00009999BRDNPE01EMD00               N888   030504 043004 043004                 
888  CANADA                     902730A    EOCN   Y1010YG054 4878CRAPAUD     PECRAPAUD    00009999CRPDPE02EMD00               N888   030504 043004 043004                 
888  CANADA                     902731A    EOCN   Y1010YG054 4878MT STEWART  PEMT STEWART 00009999MTSTPE03EMD00               N888   030804 043004 043004                 
888  CANADA                     902734A    EOCN   Y1010YG054 4878HUNTER RIV  PEHUNTER RIV 00009999HNRVPE01EMD00               N888   030504 043004 043004                 
888  CANADA                     902739A    EOCN   Y1010YG054 4878MRLLSTPTRS  PEMRLLSTPTRS 00009999MORLPE02EMD00               N888   030804 043004 043004                 
888  CANADA                     902741A    EOCN   Y1010YG054 4878MURRAY RIV  PEMURRAY RIV 00009999MURVPE02EMD00               N888   030504 043004 043004                 
888  CANADA                     902743A    EOCN   Y1010YG054 4878SOURIS      PESOURIS     00009999SORSPE01EMD00               N888   072803 091703 091703                 
888  CANADA                     902775A    EOCN   Y1010YG054 4878TIGNISH     PETIGNISH    00009999SMSDPEELEMD00    1111M      N888   121610 021211 021211                 
888  CANADA                     902781A    EOCN   Y1010YG054 160GCHARLOTTTN  PECHARLOTTTN 00009999CHTWPE010MD00    8378M      N888   101414 120514 120514                 
888  CANADA                     902784A    PMCC   Y1010Y8050 329AMONTAGUE    PEMONTAGUE   00009999MTAGPE03AMD00               N888   111010 010111 062411                 
888  CANADA                     902786A    PMCC   Y1010YG054 421GSUMMERSIDE  PESUMMERSIDE 00009999CHTWPEEG0MD00    0001A      N888   020712 033112 033112                 
888  CANADA                     902795A    EOCN   Y1010YG054 4878CARDIGAN    PECARDIGAN   00009999CHTWPE01EMD00    1111M      N888   040511 052811 052811                 
888  CANADA                     902806A    PMCC   Y1010Y8084 8303TIGNISH     PETIGNISH    00009999TGNHPE01AMD00    0010A      N888   102810 122310 122310                 
888  CANADA                     902807A    PMCC   Y1010Y8084 8303O LEARY     PEO LEARY    00009999OLRYPE01AMD00    0010A      N888   102810 122310 122310                 
888  CANADA                     902808A    PMCC   Y1010Y8084 8303GEORGETOWN  PEGEORGETOWN 00009999GRTWPE02AMD00    0010A      N888   102810 122310 122310                 
888  CANADA                     902812A    EOCN   Y1010YG054 154ECHARLOTTTN  PECHARLOTTTN 00009999CHTWPETN0MD00    1212A      N888   101911 121311 121311                 
888  CANADA                     902813A    EOCN   Y1010YG054 154ECHARLOTTTN  PECHARLOTTTN 00009999CHTWPETN0MD00    1212A      N888   022712 042312 042312                 
888  CANADA                     902816A    EOCN   Y1010YG054 154ECHARLOTTTN  PECHARLOTTTN 00009999CHTWPETN0MD00    1212A      N888   022712 042312 042312                 
888  CANADA                     902831A    EOCN   Y1010Y8050 8087TYNEVALLEY  PETYNEVALLEY 00009999TYVYPE02RS100               N888   021298 010100 091614                 
888  CANADA                     902836A    EOCN   Y1010Y8050 8087KENSINGTON  PEKENSINGTON 00009999CHTWPE01CG000               N888   021298 010100 021207                 
888  CANADA                     902838A    EOCN   Y1010Y8050 8087MONTAGUE    PEMONTAGUE   00009999MTAGPE03RS100               N888   021298 010100 093003                 
888  CANADA                     902846A    EOCN   Y1010Y8050 8087MONTAGUE    PEMONTAGUE   00009999MTAGPE03RS100    1111M      N888   110305 121905 121905                 
888  CANADA                     902853A    EOCN   Y1010Y8050 8087ALBERTON    PEALBERTON   00009999ALTNPE01RS100               N888   021298 010100 093003                 
888  CANADA                     902854A    EOCN   Y1010Y8050 8087WELLINGTON  PEWELLINGTON 00009999WGTNPE02RS100               N888   021298 010100 091614                 
888  CANADA                     902855A    EOCN   Y1010Y8050 8087BORDEN      PEBORDEN     00009999BRDNPE01RS100               N888   021298 010100 061104                 
888  CANADA                     902856A    EOCN   Y1010Y8050 8087ALBERTON    PEALBERTON   00009999ALTNPE01RS100               N888   082599 010100 120106                 
888  CANADA                     902859A    EOCN   Y1010Y8050 8087O LEARY     PEO LEARY    00009999OLRYPE01RS100               N888   021298 010100 041306                 
888  CANADA                     902882A    EOCN   Y1010Y8050 8087TIGNISH     PETIGNISH    00009999CHTWPE01CG000               N888   021298 010100 021207                 
888  CANADA                     902886A    EOCN   Y1010Y8050 8087NEW LONDON  PENEW LONDON 00009999NWLNPE02RS100               N888   021298 010100 091614                 
888  CANADA                     902887A    EOCN   Y1010Y8050 8087BEDEQUE     PEBEDEQUE    00009999BDQEPE01RS100               N888   021298 010100 091614                 
888  CANADA                     902888A    EOCBC  Y1010Y8050 8087SUMMERSIDE  PESUMMERSIDE 00009999SMSDPE01RS000               N888   021298 010100 120106                 
888  CANADA                     902892A    EOCN   Y1010Y8050 8087CHARLOTTTN  PECHARLOTTTN 00009999CHTWPE01CG000               N888   021298 010100 111600                 
888  CANADA                     902894A    EOCN   Y1010Y8050 8087CHARLOTTTN  PECHARLOTTTN 00009999CHTWPE01CG000               N888   021298 010100 111600                 
888  CANADA              E040416902905A    EOCN   Y1010YG054 154EALBERTON    PEALBERTON   00009999CHTWPETN0MD00    1212A      N888   012916 040416 040416                 
888  CANADA                     902916A    PMCC   Y1010Y8084 8303CHARLOTTTN  PECHARLOTTTN 00009999CHTWPE015MD00    0010A      N888   100815 113015 113015                 
888  CANADA              E041316902918A    EOCN   Y1010YG054 154ESUMMERSIDE  PESUMMERSIDE 00009999CHTWPETN0MD00    1212A      N888   022616 041316 041316                 
888  CANADA                     902933A    EOCN   Y1010YG054 4878BEDEQUE     PEBEDEQUE    00009999CHTWPE01EMD00    1111M      N888   080615 092515 092515                 
888  CANADA                     902940A    EOCN   Y1010Y8050 8087CHARLOTTTN  PECHARLOTTTN 00009999CHTWPE01CG000               N888   082302 101602 121906                 
888  CANADA                     902948A    PMCC   Y1010N8050 329ACHARLOTTTN  PECHARLOTTTN 00009999CHTWPE018MD00    0000A      N888   041713 051213 051213                 
888  CANADA                     902954A    EOCN   Y1010Y8050 8087SUMMERSIDE  PESUMMERSIDE 00009999SMSDPE01RS000               N888   082302 101602 120106                 
888  CANADA                     902960A    PMCC   Y1010Y8084 8303ALBERTON    PEALBERTON   00009999ALTNPE01FMD00    0010M      N888   070610 082210 080811                 
888  CANADA                     902961A    EOCN   Y1010Y8050 8087MRLLSTPTRS  PEMRLLSTPTRS 00009999MORLPE02RS100               N888   021298 010100 061104                 
888  CANADA                     902962A    EOCN   Y1010Y8050 8087MURRAY RIV  PEMURRAY RIV 00009999MURVPE02RS100               N888   021298 010100 061104                 
888  CANADA                     902963A    EOCN   Y1010Y8050 8087RUSTICOVL   PERUSTICOVL  00009999RTVLPE01RS100               N888   021298 010100 061512                 
888  CANADA                     902964A    EOCN   Y1010Y8050 8087HUNTER RIV  PEHUNTER RIV 00009999HNRVPE01RS100               N888   021298 010100 061104                 
888  CANADA                     902969A    PMCC   Y1010Y8050 329AMONTAGUE    PEMONTAGUE   00009999MTAGPE03AMD00               N888   021298 010100 031407                 
888  CANADA                     902978A    PMCC   Y1010Y8821 8820CHARLOTTTN  PECHARLOTTTN 00009999CHTWPEAAFMD00    1111M      N888   111908 011209 011209                 
888  CANADA                     902992A    PMCC   Y1010Y8821 8820SUMMERSIDE  PESUMMERSIDE 00009999SMSDPEAACMD00    1101A      N888   050913 070513 070513                 
