Destination Area Code ( NPA ) *,Destination Exchange ( NXX ) *,Destination Block,Usage Group,Rate Type,Cost,Per Usage,Rate Code,Volume Scheme,Rounding Scheme,Minimum Charge Per Usage Record
514,352,,USA,Simple,0.182130,60,,,30/6,
514,283,,USA,Simple,0.182130,60,,,30/6,
514,316,,USA,Simple,0.182130,60,,,30/6,
419,245,,USA,Simple,0.030420,60,,,30/6,
