accountcode,shortname,longname,contact,address1,cityprov,postalcode,country,salescontact,empty1,contactphone,extension,contact2,contact3,empty2,contact4,empty3,empty4,empty5,empty6,empty7,empty8,empty9,empty10,notes,empty11,empty12,empty13,empty14,empty15,empty16,empty17,empty18,empty19,empty20,empty21,contact5,startdate,notes2,empty22,limits,value,value2,language,price,standard,zero1,zero2,yesno1,yesno2,yesno3,yesno4,empty23,empty24,amountowing,unknown1,date2
4505859717,A.STEVE FOISY / NANC,A.STEVE FOISY / NANCY RIVARD,,179 BOUL. LAROCHELLE,REPENTIGNY  (QC),J6A 1K2,Canada,,,,,,,,450 585-9717,,,,,,,,,,,,,,,,,,,,,,,0 : COMPTES A RECEVOIR,,Illimitée,0,00,Français,Prix de vente (,Standard,0,0,Non,Non,Non,Non,,,6340,23,2016-06-13

