LineOfBusinessPID,Code,Description
1,Traditional Telephone Services,Traditional Telephone Services
2,VOIP Services,VOIP Services
3,BW Conference Services,BW Conference Services
4,Music Services,Music Services
5,Equipment Services,Equipment Services
6,Internet Services,Internet Services
7,Mobile Services,Mobile Services
11,Special charge/Frais special,Frais Special/Special Charge
12,Appel de service technique/Technical Service call,Appel de service technique/Technical Service call
